-------------------------------------------------------------------------------
Test set: com.example.metering.MeteringApplicationTests
-------------------------------------------------------------------------------
Tests run: 1, Failures: 0, Errors: 0, Skipped: 0, Time elapsed: 11.458 sec - in com.example.metering.MeteringApplicationTests
